PCBNEW-LibModule-V1   18/07/2013-21:02:10
$INDEX
transistors_fel-SO-8
transistors_fel-SOT-23
transistors_fel-SOT-223
transistors_fel-TO-92
$EndINDEX
$MODULE transistors_fel-SO-8
Po 0 0 0 15 00200000 00000000 ~~
Li transistors_fel-SO-8
Cd SO-8
Kw SO-8
Sc 00000000
Op 0 0 0
At SMD
DS -1000 -550 -859 -550 26 21
DS -859 -550 -859 -950 26 21
DS -1000 -950 -859 -950 26 21
DS -1000 -550 -1000 -950 26 21
DS -1000 -50 -859 -50 26 21
DS -859 -50 -859 -450 26 21
DS -1000 -450 -859 -450 26 21
DS -1000 -50 -1000 -450 26 21
DS -1000 450 -859 450 26 21
DS -859 450 -859 50 26 21
DS -1000 50 -859 50 26 21
DS -1000 450 -1000 50 26 21
DS -1000 950 -859 950 26 21
DS -859 950 -859 550 26 21
DS -1000 550 -859 550 26 21
DS -1000 950 -1000 550 26 21
DS 859 -550 1000 -550 26 21
DS 1000 -550 1000 -950 26 21
DS 859 -950 1000 -950 26 21
DS 859 -550 859 -950 26 21
DS 859 -50 1000 -50 26 21
DS 1000 -50 1000 -450 26 21
DS 859 -450 1000 -450 26 21
DS 859 -50 859 -450 26 21
DS 859 450 1000 450 26 21
DS 1000 450 1000 50 26 21
DS 859 50 1000 50 26 21
DS 859 450 859 50 26 21
DS 859 950 1000 950 26 21
DS 1000 950 1000 550 26 21
DS 859 550 1000 550 26 21
DS 859 950 859 550 26 21
DS -709 -929 -709 929 60 21
DS -709 929 709 929 60 21
DS 709 929 709 -929 60 21
DS 709 -929 -709 -929 60 21
DC -390 -709 -460 -779 10 21
T0 700 1325 500 500 0 35 N V ">VALUE"
T1 25 -550 500 500 900 35 N V ">NAME"
$PAD
Sh "1" R 240 869 0 0 0
Dr 0 0 0 
At SMD N 00888000
Ne 0 ""
Po -1030 -750 
$EndPAD
$PAD
Sh "2" R 240 869 0 0 0
Dr 0 0 0 
At SMD N 00888000
Ne 0 ""
Po -1030 -250 
$EndPAD
$PAD
Sh "3" R 240 869 0 0 0
Dr 0 0 0 
At SMD N 00888000
Ne 0 ""
Po -1030 250 
$EndPAD
$PAD
Sh "4" R 240 869 0 0 0
Dr 0 0 0 
At SMD N 00888000
Ne 0 ""
Po -1030 750 
$EndPAD
$PAD
Sh "5" R 240 869 0 0 0
Dr 0 0 0 
At SMD N 00888000
Ne 0 ""
Po 1030 750 
$EndPAD
$PAD
Sh "6" R 240 869 0 0 0
Dr 0 0 0 
At SMD N 00888000
Ne 0 ""
Po 1030 250 
$EndPAD
$PAD
Sh "7" R 240 869 0 0 0
Dr 0 0 0 
At SMD N 00888000
Ne 0 ""
Po 1030 -250 
$EndPAD
$PAD
Sh "8" R 240 869 0 0 0
Dr 0 0 0 
At SMD N 00888000
Ne 0 ""
Po 1030 -750 
$EndPAD
$EndMODULE SO-8
$MODULE transistors_fel-SOT-23
Po 0 0 0 15 00200000 00000000 ~~
Li transistors_fel-SOT-23
Cd SOT-23, 3-PIN
Kw SOT-23, 3-PIN
Sc 00000000
Op 0 0 0
At SMD
DS -536 230 -536 -219 80 21
DS -536 -219 513 -219 80 21
DS 513 -219 513 230 80 21
DS 513 230 -536 230 80 21
T0 1800 0 400 400 0 35 N V ">NAME"
T1 2000 750 400 400 0 35 N V ">VALUE"
$PAD
Sh "1" R 300 300 0 0 0
Dr 0 0 0 
At SMD N 00888000
Ne 0 ""
Po -385 433 
$EndPAD
$PAD
Sh "2" R 300 300 0 0 0
Dr 0 0 0 
At SMD N 00888000
Ne 0 ""
Po 370 433 
$EndPAD
$PAD
Sh "3" R 300 300 0 0 0
Dr 0 0 0 
At SMD N 00888000
Ne 0 ""
Po 10 -420 
$EndPAD
$EndMODULE SOT-23
$MODULE transistors_fel-SOT-223
Po 0 0 0 15 00200000 00000000 ~~
Li transistors_fel-SOT-223
Cd SOT-223, 4-PIN
Kw SOT-223, 4-PIN
Sc 00000000
Op 0 0 0
At SMD
DS -1236 730 -1236 -769 120 21
DS -1236 -769 1263 -769 120 21
DS 1263 -769 1263 730 120 21
DS 1263 730 -1236 730 120 21
T0 250 0 500 500 0 35 N V ">NAME"
T1 -1750 0 500 500 900 35 N V ">VALUE"
$PAD
Sh "1" R 590 790 0 0 0
Dr 0 0 0 
At SMD N 00888000
Ne 0 ""
Po -905 1273 
$EndPAD
$PAD
Sh "2" R 590 790 0 0 0
Dr 0 0 0 
At SMD N 00888000
Ne 0 ""
Po 0 1273 
$EndPAD
$PAD
Sh "3" R 590 790 0 0 0
Dr 0 0 0 
At SMD N 00888000
Ne 0 ""
Po 905 1273 
$EndPAD
$PAD
Sh "4" R 1500 760 0 0 0
Dr 0 0 0 
At SMD N 00888000
Ne 0 ""
Po 0 -1250 
$EndPAD
$EndMODULE SOT-223
$MODULE transistors_fel-TO-92
Po 0 0 0 15 00200000 00000000 ~~
Li transistors_fel-TO-92
Cd 
Kw 
Sc 00000000
Op 0 0 0
At VIRTUAL
DS -824 650 824 650 60 21
DS -887 100 -112 100 60 21
DS -1045 100 -887 100 60 21
DS -112 100 112 100 60 21
DS 887 100 1045 100 60 21
DS 112 100 887 100 60 21
DA 0 0 -824 650 4710 60 21 
DA 0 0 309 -1003 4710 60 21 
DA 0 0 -309 -1003 3942 60 21 
T0 2500 -500 500 500 0 35 N V ">NAME"
T1 2750 250 500 500 0 35 N V ">VALUE"
T2 0 -500 500 500 0 35 N V "2"
T3 -600 -250 500 500 0 35 N V "1"
T4 700 -250 500 500 0 35 N V "3"
$PAD
Sh "1" C 520 1040 0 0 0
Dr 320 0 0 
At STD N 00A88001
Ne 0 ""
Po -500 0 
$EndPAD
$PAD
Sh "2" C 520 1040 0 0 0
Dr 320 0 0 
At STD N 00A88001
Ne 0 ""
Po 0 -750 
$EndPAD
$PAD
Sh "3" C 520 1040 0 0 0
Dr 320 0 0 
At STD N 00A88001
Ne 0 ""
Po 500 0 
$EndPAD
$EndMODULE TO-92
$EndLIBRARY
