EESchema Schematic File Version 2
LIBS:power
LIBS:device
LIBS:transistors
LIBS:conn
LIBS:linear
LIBS:regul
LIBS:74xx
LIBS:cmos4000
LIBS:adc-dac
LIBS:memory
LIBS:xilinx
LIBS:special
LIBS:microcontrollers
LIBS:dsp
LIBS:microchip
LIBS:analog_switches
LIBS:motorola
LIBS:texas
LIBS:intel
LIBS:audio
LIBS:interface
LIBS:digital-audio
LIBS:philips
LIBS:display
LIBS:cypress
LIBS:siliconi
LIBS:opto
LIBS:atmel
LIBS:contrib
LIBS:valves
LIBS:stereo_jack_3
LIBS:transistors_fel
LIBS:arduino_shieldsNCL
LIBS:AudioSerialVib-cache
EELAYER 24 0
EELAYER END
$Descr A4 11693 8268
encoding utf-8
Sheet 1 1
Title ""
Date ""
Rev ""
Comp ""
Comment1 ""
Comment2 ""
Comment3 ""
Comment4 ""
$EndDescr
$Comp
L ARDUINO_MEGA_SHIELD SHIELD1
U 1 1 51E88674
P 6250 4050
F 0 "SHIELD1" H 5850 6550 60  0000 C CNN
F 1 "ARDUINO_MEGA_SHIELD" H 6150 1350 60  0000 C CNN
F 2 "" H 6250 4050 60  0000 C CNN
F 3 "" H 6250 4050 60  0000 C CNN
	1    6250 4050
	1    0    0    -1  
$EndComp
NoConn ~ 5250 2200
NoConn ~ 5250 2300
NoConn ~ 5250 2600
NoConn ~ 5250 2800
NoConn ~ 5250 2900
NoConn ~ 5250 3000
NoConn ~ 5250 3100
NoConn ~ 5250 3200
NoConn ~ 5250 3300
NoConn ~ 5250 3400
NoConn ~ 5250 3500
NoConn ~ 5250 3700
NoConn ~ 5250 3800
NoConn ~ 5250 3900
NoConn ~ 5250 4000
NoConn ~ 5250 4100
NoConn ~ 5250 4200
NoConn ~ 5250 4300
NoConn ~ 5250 4400
NoConn ~ 5250 4900
NoConn ~ 5250 5000
NoConn ~ 5250 5100
NoConn ~ 5250 5200
NoConn ~ 5250 5350
NoConn ~ 5250 5450
NoConn ~ 5250 5550
NoConn ~ 5250 5650
NoConn ~ 5250 5750
NoConn ~ 5250 5850
NoConn ~ 5250 5950
NoConn ~ 5250 6050
NoConn ~ 5250 6200
NoConn ~ 5250 6300
NoConn ~ 5250 6400
NoConn ~ 5250 6500
NoConn ~ 7150 4700
NoConn ~ 7150 4800
NoConn ~ 7150 4900
NoConn ~ 7150 5000
NoConn ~ 7150 5100
NoConn ~ 7150 5200
NoConn ~ 7150 5300
NoConn ~ 7150 5400
NoConn ~ 7150 5550
NoConn ~ 7150 5650
NoConn ~ 7150 5750
NoConn ~ 7150 5850
NoConn ~ 7150 5950
NoConn ~ 7150 6050
NoConn ~ 7150 6150
NoConn ~ 7150 6250
NoConn ~ 7150 4100
NoConn ~ 7150 4200
NoConn ~ 7150 4450
NoConn ~ 7150 4550
NoConn ~ 7150 1700
NoConn ~ 7150 1800
NoConn ~ 7150 1900
NoConn ~ 7150 2000
NoConn ~ 7150 2100
NoConn ~ 7150 2200
NoConn ~ 7150 2300
NoConn ~ 7150 2400
NoConn ~ 7150 2600
NoConn ~ 7150 2700
NoConn ~ 7150 2800
NoConn ~ 7150 2900
$Comp
L LM324N U2
U 3 1 51E88A26
P 2800 3700
F 0 "U2" H 2850 3900 60  0000 C CNN
F 1 "LM324N" H 2950 3500 50  0000 C CNN
F 2 "" H 2800 3700 60  0000 C CNN
F 3 "" H 2800 3700 60  0000 C CNN
	3    2800 3700
	1    0    0    -1  
$EndComp
$Comp
L LM324N U2
U 4 1 51E88A35
P 2800 5100
F 0 "U2" H 2850 5300 60  0000 C CNN
F 1 "LM324N" H 2950 4900 50  0000 C CNN
F 2 "" H 2800 5100 60  0000 C CNN
F 3 "" H 2800 5100 60  0000 C CNN
	4    2800 5100
	1    0    0    -1  
$EndComp
$Comp
L R R1
U 1 1 51E88ABB
P 2250 4200
F 0 "R1" V 2330 4200 40  0000 C CNN
F 1 "4K7" V 2257 4201 40  0000 C CNN
F 2 "" V 2180 4200 30  0000 C CNN
F 3 "" H 2250 4200 30  0000 C CNN
	1    2250 4200
	1    0    0    -1  
$EndComp
$Comp
L CONN_2 P1
U 1 1 51E88B29
P 10200 1400
F 0 "P1" V 10150 1400 40  0000 C CNN
F 1 "CONN_2" V 10250 1400 40  0000 C CNN
F 2 "" H 10200 1400 60  0000 C CNN
F 3 "" H 10200 1400 60  0000 C CNN
	1    10200 1400
	1    0    0    -1  
$EndComp
$Comp
L CONN_2 P2
U 1 1 51E88B38
P 10200 3400
F 0 "P2" V 10150 3400 40  0000 C CNN
F 1 "CONN_2" V 10250 3400 40  0000 C CNN
F 2 "" H 10200 3400 60  0000 C CNN
F 3 "" H 10200 3400 60  0000 C CNN
	1    10200 3400
	1    0    0    -1  
$EndComp
$Comp
L USB J1
U 1 1 51E88BCD
P 2000 1300
F 0 "J1" H 1950 1700 60  0000 C CNN
F 1 "USB" V 1750 1450 60  0000 C CNN
F 2 "" H 2000 1300 60  0000 C CNN
F 3 "" H 2000 1300 60  0000 C CNN
	1    2000 1300
	1    0    0    -1  
$EndComp
$Comp
L STEREO_JACK_3.5MM U1
U 1 1 51E894A1
P 1900 2600
F 0 "U1" H 1900 2300 60  0000 C CNN
F 1 "STEREO_JACK_3.5MM" H 2050 2900 60  0000 C CNN
F 2 "" H 1900 2600 60  0000 C CNN
F 3 "" H 1900 2600 60  0000 C CNN
	1    1900 2600
	-1   0    0    1   
$EndComp
NoConn ~ 2350 1500
NoConn ~ 2350 1650
$Comp
L GND #PWR01
U 1 1 51E895A8
P 2500 1850
F 0 "#PWR01" H 2500 1850 30  0001 C CNN
F 1 "GND" H 2500 1780 30  0001 C CNN
F 2 "" H 2500 1850 60  0000 C CNN
F 3 "" H 2500 1850 60  0000 C CNN
	1    2500 1850
	1    0    0    -1  
$EndComp
$Comp
L GND #PWR02
U 1 1 51E895B7
P 1500 1850
F 0 "#PWR02" H 1500 1850 30  0001 C CNN
F 1 "GND" H 1500 1780 30  0001 C CNN
F 2 "" H 1500 1850 60  0000 C CNN
F 3 "" H 1500 1850 60  0000 C CNN
	1    1500 1850
	1    0    0    -1  
$EndComp
$Comp
L +5V #PWR03
U 1 1 51E895D4
P 1500 1400
F 0 "#PWR03" H 1500 1490 20  0001 C CNN
F 1 "+5V" H 1500 1490 30  0000 C CNN
F 2 "" H 1500 1400 60  0000 C CNN
F 3 "" H 1500 1400 60  0000 C CNN
	1    1500 1400
	1    0    0    -1  
$EndComp
$Comp
L +5V #PWR04
U 1 1 51E89624
P 2700 3200
F 0 "#PWR04" H 2700 3290 20  0001 C CNN
F 1 "+5V" H 2700 3290 30  0000 C CNN
F 2 "" H 2700 3200 60  0000 C CNN
F 3 "" H 2700 3200 60  0000 C CNN
	1    2700 3200
	1    0    0    -1  
$EndComp
$Comp
L +5V #PWR05
U 1 1 51E89633
P 2700 4600
F 0 "#PWR05" H 2700 4690 20  0001 C CNN
F 1 "+5V" H 2700 4690 30  0000 C CNN
F 2 "" H 2700 4600 60  0000 C CNN
F 3 "" H 2700 4600 60  0000 C CNN
	1    2700 4600
	1    0    0    -1  
$EndComp
$Comp
L GND #PWR06
U 1 1 51E89655
P 2700 4250
F 0 "#PWR06" H 2700 4250 30  0001 C CNN
F 1 "GND" H 2700 4180 30  0001 C CNN
F 2 "" H 2700 4250 60  0000 C CNN
F 3 "" H 2700 4250 60  0000 C CNN
	1    2700 4250
	1    0    0    -1  
$EndComp
$Comp
L GND #PWR07
U 1 1 51E89664
P 2700 5700
F 0 "#PWR07" H 2700 5700 30  0001 C CNN
F 1 "GND" H 2700 5630 30  0001 C CNN
F 2 "" H 2700 5700 60  0000 C CNN
F 3 "" H 2700 5700 60  0000 C CNN
	1    2700 5700
	1    0    0    -1  
$EndComp
$Comp
L POT RV1
U 1 1 51E8968A
P 1500 3600
F 0 "RV1" H 1500 3500 50  0000 C CNN
F 1 "10K" H 1500 3600 50  0000 C CNN
F 2 "" H 1500 3600 60  0000 C CNN
F 3 "" H 1500 3600 60  0000 C CNN
	1    1500 3600
	0    1    1    0   
$EndComp
$Comp
L +5V #PWR08
U 1 1 51E89699
P 1500 3200
F 0 "#PWR08" H 1500 3290 20  0001 C CNN
F 1 "+5V" H 1500 3290 30  0000 C CNN
F 2 "" H 1500 3200 60  0000 C CNN
F 3 "" H 1500 3200 60  0000 C CNN
	1    1500 3200
	1    0    0    -1  
$EndComp
$Comp
L GND #PWR09
U 1 1 51E896A8
P 1500 4000
F 0 "#PWR09" H 1500 4000 30  0001 C CNN
F 1 "GND" H 1500 3930 30  0001 C CNN
F 2 "" H 1500 4000 60  0000 C CNN
F 3 "" H 1500 4000 60  0000 C CNN
	1    1500 4000
	1    0    0    -1  
$EndComp
$Comp
L GND #PWR010
U 1 1 51E89722
P 2350 2400
F 0 "#PWR010" H 2350 2400 30  0001 C CNN
F 1 "GND" H 2350 2330 30  0001 C CNN
F 2 "" H 2350 2400 60  0000 C CNN
F 3 "" H 2350 2400 60  0000 C CNN
	1    2350 2400
	1    0    0    -1  
$EndComp
Text Label 2550 2600 2    60   ~ 0
ARIGHT
Text Label 2550 2700 2    60   ~ 0
ALEFT
Text Label 1900 3800 0    60   ~ 0
ARIGHT
Text Label 1900 5200 0    60   ~ 0
ALEFT
$Comp
L R R2
U 1 1 51E89806
P 2250 5550
F 0 "R2" V 2330 5550 40  0000 C CNN
F 1 "4K7" V 2257 5551 40  0000 C CNN
F 2 "" V 2180 5550 30  0000 C CNN
F 3 "" H 2250 5550 30  0000 C CNN
	1    2250 5550
	1    0    0    -1  
$EndComp
$Comp
L GND #PWR011
U 1 1 51E89877
P 2250 4600
F 0 "#PWR011" H 2250 4600 30  0001 C CNN
F 1 "GND" H 2250 4530 30  0001 C CNN
F 2 "" H 2250 4600 60  0000 C CNN
F 3 "" H 2250 4600 60  0000 C CNN
	1    2250 4600
	1    0    0    -1  
$EndComp
$Comp
L GND #PWR012
U 1 1 51E89886
P 2250 5950
F 0 "#PWR012" H 2250 5950 30  0001 C CNN
F 1 "GND" H 2250 5880 30  0001 C CNN
F 2 "" H 2250 5950 60  0000 C CNN
F 3 "" H 2250 5950 60  0000 C CNN
	1    2250 5950
	1    0    0    -1  
$EndComp
Text Label 7450 4000 0    60   ~ 0
TX_RIGHT
Text Label 7450 3800 0    60   ~ 0
TX_LEFT
$Comp
L R R3
U 1 1 51E8992B
P 3650 3700
F 0 "R3" V 3730 3700 40  0000 C CNN
F 1 "100" V 3657 3701 40  0000 C CNN
F 2 "" V 3580 3700 30  0000 C CNN
F 3 "" H 3650 3700 30  0000 C CNN
	1    3650 3700
	0    -1   -1   0   
$EndComp
$Comp
L R R4
U 1 1 51E89931
P 3650 5100
F 0 "R4" V 3730 5100 40  0000 C CNN
F 1 "100" V 3657 5101 40  0000 C CNN
F 2 "" V 3580 5100 30  0000 C CNN
F 3 "" H 3650 5100 30  0000 C CNN
	1    3650 5100
	0    -1   -1   0   
$EndComp
Text Label 4350 5100 2    60   ~ 0
TX_LEFT
Text Label 4350 3700 2    60   ~ 0
TX_RIGHT
NoConn ~ 7150 3700
NoConn ~ 7150 3500
NoConn ~ 7150 3900
NoConn ~ 7150 3600
$Comp
L 2N7000 U3
U 1 1 51E8A393
P 9600 2000
F 0 "U3" H 9600 1650 60  0000 C CNN
F 1 "2N7000" H 9600 2300 60  0000 C CNN
F 2 "" H 9600 2000 60  0000 C CNN
F 3 "" H 9600 2000 60  0000 C CNN
	1    9600 2000
	1    0    0    -1  
$EndComp
$Comp
L 2N7000 U4
U 1 1 51E8A3A2
P 9600 4050
F 0 "U4" H 9600 3700 60  0000 C CNN
F 1 "2N7000" H 9600 4350 60  0000 C CNN
F 2 "" H 9600 4050 60  0000 C CNN
F 3 "" H 9600 4050 60  0000 C CNN
	1    9600 4050
	1    0    0    -1  
$EndComp
Text Label 7450 3100 0    60   ~ 0
PWM_RIGHT
Text Label 7450 3000 0    60   ~ 0
PWM_LEFT
Text Label 8500 2050 2    60   ~ 0
PWM_RIGHT
$Comp
L R R5
U 1 1 51E8A4A7
P 8950 2050
F 0 "R5" V 9030 2050 40  0000 C CNN
F 1 "1K" V 8957 2051 40  0000 C CNN
F 2 "" V 8880 2050 30  0000 C CNN
F 3 "" H 8950 2050 30  0000 C CNN
	1    8950 2050
	0    -1   -1   0   
$EndComp
$Comp
L R R6
U 1 1 51E8A4B6
P 8950 4100
F 0 "R6" V 9030 4100 40  0000 C CNN
F 1 "1K" V 8957 4101 40  0000 C CNN
F 2 "" V 8880 4100 30  0000 C CNN
F 3 "" H 8950 4100 30  0000 C CNN
	1    8950 4100
	0    -1   -1   0   
$EndComp
Text Label 8500 4100 2    60   ~ 0
PWM_LEFT
$Comp
L +5V #PWR013
U 1 1 51E8A5F1
P 9850 1200
F 0 "#PWR013" H 9850 1290 20  0001 C CNN
F 1 "+5V" H 9850 1290 30  0000 C CNN
F 2 "" H 9850 1200 60  0000 C CNN
F 3 "" H 9850 1200 60  0000 C CNN
	1    9850 1200
	1    0    0    -1  
$EndComp
$Comp
L GND #PWR014
U 1 1 51E8A65F
P 9850 2500
F 0 "#PWR014" H 9850 2500 30  0001 C CNN
F 1 "GND" H 9850 2430 30  0001 C CNN
F 2 "" H 9850 2500 60  0000 C CNN
F 3 "" H 9850 2500 60  0000 C CNN
	1    9850 2500
	1    0    0    -1  
$EndComp
$Comp
L GND #PWR015
U 1 1 51E8A66E
P 9850 4550
F 0 "#PWR015" H 9850 4550 30  0001 C CNN
F 1 "GND" H 9850 4480 30  0001 C CNN
F 2 "" H 9850 4550 60  0000 C CNN
F 3 "" H 9850 4550 60  0000 C CNN
	1    9850 4550
	1    0    0    -1  
$EndComp
$Comp
L +5V #PWR016
U 1 1 51E8A6DE
P 9850 3150
F 0 "#PWR016" H 9850 3240 20  0001 C CNN
F 1 "+5V" H 9850 3240 30  0000 C CNN
F 2 "" H 9850 3150 60  0000 C CNN
F 3 "" H 9850 3150 60  0000 C CNN
	1    9850 3150
	1    0    0    -1  
$EndComp
$Comp
L GND #PWR017
U 1 1 51E8A75C
P 5100 4800
F 0 "#PWR017" H 5100 4800 30  0001 C CNN
F 1 "GND" H 5100 4730 30  0001 C CNN
F 2 "" H 5100 4800 60  0000 C CNN
F 3 "" H 5100 4800 60  0000 C CNN
	1    5100 4800
	1    0    0    -1  
$EndComp
$Comp
L GND #PWR018
U 1 1 51E8A7D1
P 5100 2550
F 0 "#PWR018" H 5100 2550 30  0001 C CNN
F 1 "GND" H 5100 2480 30  0001 C CNN
F 2 "" H 5100 2550 60  0000 C CNN
F 3 "" H 5100 2550 60  0000 C CNN
	1    5100 2550
	1    0    0    -1  
$EndComp
NoConn ~ 5250 2100
NoConn ~ 3800 2450
$Comp
L CONN_3 K1
U 1 1 51E8A8F0
P 9750 5100
F 0 "K1" V 9700 5100 50  0000 C CNN
F 1 "CONN_3" V 9800 5100 40  0000 C CNN
F 2 "" H 9750 5100 60  0000 C CNN
F 3 "" H 9750 5100 60  0000 C CNN
	1    9750 5100
	1    0    0    -1  
$EndComp
Text Label 9100 5000 2    60   ~ 0
RX_DBG
Text Label 9100 5100 2    60   ~ 0
TX_DBG
Text Label 9100 5200 2    60   ~ 0
GND
Text Label 7450 3200 0    60   ~ 0
RX_DBG
Text Label 7450 3300 0    60   ~ 0
TX_DBG
Wire Wire Line
	1600 1750 1500 1750
Wire Wire Line
	1500 1650 1500 1850
Wire Wire Line
	2350 1750 2500 1750
Wire Wire Line
	2500 1750 2500 1850
Wire Wire Line
	1600 1500 1500 1500
Wire Wire Line
	1500 1500 1500 1400
Wire Wire Line
	1600 1650 1500 1650
Connection ~ 1500 1750
Wire Wire Line
	2700 3200 2700 3300
Wire Wire Line
	2700 4600 2700 4700
Wire Wire Line
	1500 3200 1500 3350
Wire Wire Line
	1500 3850 1500 4000
Wire Wire Line
	1650 3600 2300 3600
Wire Wire Line
	1850 3600 1850 5000
Wire Wire Line
	1850 5000 2300 5000
Connection ~ 1850 3600
Wire Wire Line
	2100 2500 2200 2500
Wire Wire Line
	2200 2500 2200 2300
Wire Wire Line
	2200 2300 2350 2300
Wire Wire Line
	2350 2300 2350 2400
Wire Wire Line
	2100 2600 2550 2600
Wire Wire Line
	2100 2700 2550 2700
Wire Wire Line
	1900 3800 2300 3800
Wire Wire Line
	2300 5200 1900 5200
Wire Wire Line
	2250 3950 2250 3800
Connection ~ 2250 3800
Wire Wire Line
	2250 5300 2250 5200
Connection ~ 2250 5200
Wire Wire Line
	2250 5800 2250 5950
Wire Wire Line
	3300 5100 3400 5100
Wire Wire Line
	3300 3700 3400 3700
Wire Wire Line
	3900 5100 4350 5100
Wire Wire Line
	3900 3700 4350 3700
Wire Wire Line
	8500 2050 8700 2050
Wire Wire Line
	9200 2050 9300 2050
Wire Wire Line
	9200 4100 9300 4100
Wire Wire Line
	8500 4100 8700 4100
Wire Wire Line
	9850 1500 9850 1650
Wire Wire Line
	9850 3500 9850 3700
Wire Wire Line
	9850 1200 9850 1300
Wire Wire Line
	9850 2350 9850 2500
Wire Wire Line
	9850 4400 9850 4550
Wire Wire Line
	9850 3150 9850 3300
Wire Wire Line
	5100 4800 5100 4650
Wire Wire Line
	5100 4650 5250 4650
Wire Wire Line
	5250 4750 5100 4750
Connection ~ 5100 4750
Wire Wire Line
	5100 2550 5100 2400
Wire Wire Line
	5100 2400 5250 2400
Wire Wire Line
	5250 2500 5100 2500
Connection ~ 5100 2500
Wire Wire Line
	9100 5000 9400 5000
Wire Wire Line
	9100 5100 9400 5100
Wire Wire Line
	9100 5200 9400 5200
Wire Wire Line
	7450 3300 7150 3300
Wire Wire Line
	7450 3200 7150 3200
Wire Wire Line
	7450 3100 7150 3100
Wire Wire Line
	7150 3000 7450 3000
Wire Wire Line
	7450 3800 7150 3800
Wire Wire Line
	7450 4000 7150 4000
Wire Wire Line
	2700 5700 2700 5500
Wire Wire Line
	2700 4250 2700 4100
Wire Wire Line
	2250 4450 2250 4600
$Comp
L GND #PWR019
U 1 1 51E8AD98
P 750 1850
F 0 "#PWR019" H 750 1850 30  0001 C CNN
F 1 "GND" H 750 1780 30  0001 C CNN
F 2 "" H 750 1850 60  0000 C CNN
F 3 "" H 750 1850 60  0000 C CNN
	1    750  1850
	1    0    0    -1  
$EndComp
$Comp
L PWR_FLAG #FLG020
U 1 1 51E8ADA8
P 750 1750
F 0 "#FLG020" H 750 1845 30  0001 C CNN
F 1 "PWR_FLAG" H 750 1930 30  0000 C CNN
F 2 "" H 750 1750 60  0000 C CNN
F 3 "" H 750 1750 60  0000 C CNN
	1    750  1750
	1    0    0    -1  
$EndComp
Wire Wire Line
	750  1750 750  1850
Text Label 9100 5600 2    60   ~ 0
TX_LEFT
Text Label 9100 6100 2    60   ~ 0
ALEFT
Text Label 9100 5500 2    60   ~ 0
TX_RIGHT
Text Label 9100 6000 2    60   ~ 0
ARIGHT
$Comp
L GND #PWR021
U 1 1 51E8B097
P 9100 5800
F 0 "#PWR021" H 9100 5800 30  0001 C CNN
F 1 "GND" H 9100 5730 30  0001 C CNN
F 2 "" H 9100 5800 60  0000 C CNN
F 3 "" H 9100 5800 60  0000 C CNN
	1    9100 5800
	1    0    0    -1  
$EndComp
Wire Wire Line
	9100 5500 9400 5500
Wire Wire Line
	9100 6000 9400 6000
Wire Wire Line
	9100 5600 9400 5600
Wire Wire Line
	9100 6100 9400 6100
Wire Wire Line
	9400 5700 9100 5700
Wire Wire Line
	9100 5700 9100 5800
$Comp
L CONN_3 K2
U 1 1 51E8CBDD
P 9750 5600
F 0 "K2" V 9700 5600 50  0000 C CNN
F 1 "CONN_3" V 9800 5600 40  0000 C CNN
F 2 "" H 9750 5600 60  0000 C CNN
F 3 "" H 9750 5600 60  0000 C CNN
	1    9750 5600
	1    0    0    -1  
$EndComp
$Comp
L CONN_3 K3
U 1 1 51E8CBEC
P 9750 6100
F 0 "K3" V 9700 6100 50  0000 C CNN
F 1 "CONN_3" V 9800 6100 40  0000 C CNN
F 2 "" H 9750 6100 60  0000 C CNN
F 3 "" H 9750 6100 60  0000 C CNN
	1    9750 6100
	1    0    0    -1  
$EndComp
$Comp
L GND #PWR022
U 1 1 51E8CC08
P 9100 6300
F 0 "#PWR022" H 9100 6300 30  0001 C CNN
F 1 "GND" H 9100 6230 30  0001 C CNN
F 2 "" H 9100 6300 60  0000 C CNN
F 3 "" H 9100 6300 60  0000 C CNN
	1    9100 6300
	1    0    0    -1  
$EndComp
Wire Wire Line
	9400 6200 9100 6200
Wire Wire Line
	9100 6200 9100 6300
$EndSCHEMATC
