PCBNEW-LibModule-V1  vie 19 jul 2013 18:27:19 COT
# encoding utf-8
Units mm
$INDEX
JACK-3.5-1
$EndINDEX
$MODULE JACK-3.5-1
Po 0 0 0 15 51E9CB41 00000000 ~~
Li JACK-3.5-1
Sc 0
AR 
Op 0 0 0
T0 -2 -15 1 1 0 0.15 N V 21 N "JACK-3.5-1"
T1 0 0 1 1 0 0.15 N V 21 N "VAL**"
DS 9 -5 9 -11 0.15 21
DS -6 -5 -6 -11 0.15 21
DS -3 -5 -3 -11 0.15 21
DS 9 -5 -6 -5 0.15 21
DS 9 -11 -6 -11 0.15 21
T2 10.795 -8.89 0.508 0.508 900 0.127 N V 21 N "RIGHT"
T2 6.985 -12.7 0.508 0.508 0 0.127 N V 21 N "GND"
T2 6.985 -3.175 0.508 0.508 0 0.127 N V 21 N "LEFT"
$PAD
Sh "2" O 1.5 2.7 0 0 0
Dr 0.7 0 0 O 0.7 1
At STD N 00E0FFFF
Ne 0 ""
Po 9 -9
$EndPAD
$PAD
Sh "3" O 2.5 1.7 0 0 0
Dr 1.016 0 0 O 1.016 0.7
At STD N 00E0FFFF
Ne 0 ""
Po 7 -11
$EndPAD
$PAD
Sh "1" R 2.5 1.7 0 0 0
Dr 1.016 0 0 O 1.016 0.7
At STD N 00E0FFFF
Ne 0 ""
Po 7 -5
$EndPAD
$PAD
Sh "" C 4 4 0 0 0
Dr 2 0 0
At STD N 00E0FFFF
Ne 0 ""
Po 0 -5.5
$EndPAD
$PAD
Sh "" C 4 4 0 0 0
Dr 2 0 0
At STD N 00E0FFFF
Ne 0 ""
Po 0 -10.5
$EndPAD
$EndMODULE JACK-3.5-1
$EndLIBRARY
