PCBNEW-LibModule-V1  jue 18 jul 2013 22:35:50 COT
# encoding utf-8
Units mm
$INDEX
JACK-3.5-1
$EndINDEX
$MODULE JACK-3.5-1
Po 0 0 0 15 51E8B31A 00000000 ~~
Li JACK-3.5-1
Sc 0
AR 
Op 0 0 0
T0 0 -15.24 1 1 0 0.15 N V 21 N "JACK-3.5-1"
T1 0 0 1 1 0 0.15 N V 21 N "VAL**"
T2 12.7 -15.24 1 1 0 0.15 N V 21 N "RIGHT"
T2 19.05 -8.89 1 1 0 0.15 N V 21 N "GND"
T2 12.7 0 1 1 0 0.15 N V 21 N "LEFT"
DS -2.54 -12.7 -2.54 -2.54 0.15 21
DS 15.24 -12.7 -7.62 -12.7 0.15 21
DS -7.62 -12.7 -7.62 -2.54 0.15 21
DS -7.62 -2.54 15.24 -2.54 0.15 21
DS 15.24 -2.54 15.24 -12.7 0.15 21
$PAD
Sh "" C 3.81 3.81 0 0 0
Dr 0.6 0 0
At HOLE N 00E0FFFF
Ne 0 ""
Po 2.54 -3.81
$EndPAD
$PAD
Sh "" C 3.81 3.81 0 0 0
Dr 0.6 0 0
At HOLE N 00E0FFFF
Ne 0 ""
Po 2.54 -11.43
.SolderMask 0.254
.LocalClearance 0.254
.ZoneConnection 0
$EndPAD
$PAD
Sh "2" O 3.81 2.54 0 0 0
Dr 0.6 0 0
At STD N 00E0FFFF
Ne 0 ""
Po 12.7 -12.7
$EndPAD
$PAD
Sh "1" R 3.81 2.54 0 0 0
Dr 0.6 0 0
At STD N 00E0FFFF
Ne 0 ""
Po 12.7 -2.54
$EndPAD
$PAD
Sh "3" O 2.54 3.81 0 0 0
Dr 0.6 0 0
At STD N 00E0FFFF
Ne 0 ""
Po 15.24 -8.89
$EndPAD
$EndMODULE JACK-3.5-1
$EndLIBRARY
